out.vcd
$date
	Sun Apr 16 20:00:58 2023
$end
$version
	Icarus Verilog
$end
$timescale
	1s
$end
$scope module tb $end
$scope module uut $end
$var wire 1 ! clk $end
$var wire 32 " imem_data [31:0] $end
$var wire 32 # imem_addr [31:0] $end
$var wire 1 $ dmem_we $end
$var wire 32 % dmem_wdata [31:0] $end
$var wire 32 & dmem_rdata [31:0] $end
$var wire 32 ' dmem_addr [31:0] $end
$scope module dmem $end
$var wire 1 ! clk $end
$var wire 32 ( rdata [31:0] $end
$var wire 1 $ write_enable $end
$var wire 32 ) wdata [31:0] $end
$var wire 32 * addr [31:0] $end
$upscope $end
$scope module imem $end
$var wire 6 + addr [5:0] $end
$var wire 1 ! clk $end
$var reg 32 , data [31:0] $end
$upscope $end
$scope module man $end
$var wire 1 ! clk $end
$var wire 32 - dmem_rdata [31:0] $end
$var wire 32 . imem_data [31:0] $end
$var wire 1 / reg_write $end
$var wire 1 0 reg_dst $end
$var wire 1 1 mem_to_reg $end
$var wire 1 2 jump $end
$var wire 32 3 imem_addr [31:0] $end
$var wire 1 $ dmem_we $end
$var wire 32 4 dmem_wdata [31:0] $end
$var wire 32 5 dmem_addr [31:0] $end
$var wire 1 6 branch $end
$var wire 3 7 alucontrol [2:0] $end
$var wire 1 8 alu_src $end
$scope module controller $end
$var wire 1 8 alu_src $end
$var wire 1 6 branch $end
$var wire 32 9 instr [31:0] $end
$var wire 1 2 jump $end
$var wire 1 1 mem_to_reg $end
$var wire 1 $ mem_write $end
$var wire 1 0 reg_dst $end
$var wire 1 / reg_write $end
$var wire 6 : opcode [5:0] $end
$var wire 1 ; cond_for_sw $end
$var wire 1 < cond_for_subu $end
$var wire 1 = cond_for_sub $end
$var wire 1 > cond_for_slt $end
$var wire 1 ? cond_for_sll $end
$var wire 1 @ cond_for_ori $end
$var wire 1 A cond_for_or $end
$var wire 1 B cond_for_lw $end
$var wire 1 C cond_for_j $end
$var wire 1 D cond_for_bne $end
$var wire 1 E cond_for_beq $end
$var wire 1 F cond_for_andi $end
$var wire 1 G cond_for_and $end
$var wire 1 H cond_for_addu $end
$var wire 1 I cond_for_addiu $end
$var wire 1 J cond_for_addi $end
$var wire 1 K cond_for_add $end
$var wire 3 L alucontrol [2:0] $end
$var reg 4 M alu_command [3:0] $end
$upscope $end
$scope module datapath $end
$var wire 32 N alu_result [31:0] $end
$var wire 1 8 alu_src $end
$var wire 3 O alucontrol [2:0] $end
$var wire 1 6 branch $end
$var wire 1 P branch_cond $end
$var wire 1 ! clk $end
$var wire 32 Q instr [31:0] $end
$var wire 1 2 jump $end
$var wire 1 1 mem_to_reg $end
$var wire 1 $ mem_write $end
$var wire 1 R pc_src $end
$var wire 32 S read_data [31:0] $end
$var wire 1 0 reg_dst $end
$var wire 1 / reg_write $end
$var wire 32 T src_a [31:0] $end
$var wire 32 U write_data [31:0] $end
$var wire 5 V write_reg [4:0] $end
$var wire 32 W src_b [31:0] $end
$var wire 6 X rt [5:0] $end
$var wire 32 Y result [31:0] $end
$var wire 32 Z reg_data2 [31:0] $end
$var wire 32 [ reg_data1 [31:0] $end
$var wire 6 \ rd [5:0] $end
$var wire 32 ] pc_plus_4 [31:0] $end
$var wire 32 ^ pc_next [31:0] $end
$var wire 32 _ pc_jump [31:0] $end
$var wire 32 ` pc_branch [31:0] $end
$var wire 32 a extended_immediate [31:0] $end
$var wire 1 b branch_eval $end
$var wire 32 c alu_out [31:0] $end
$var reg 32 d pc [31:0] $end
$scope module alu $end
$var wire 32 e a [31:0] $end
$var wire 32 f b [31:0] $end
$var wire 3 g what_to_do [2:0] $end
$var wire 32 h y_out [31:0] $end
$var wire 32 i sw_out [31:0] $end
$var wire 32 j slt_out [31:0] $end
$var wire 32 k sll_out [31:0] $end
$var wire 32 l lw_out [31:0] $end
$var wire 1 b branch_eval $end
$var wire 32 m addi_out [31:0] $end
$var wire 32 n add_out [31:0] $end
$upscope $end
$scope module regfile $end
$var wire 5 o addr1 [4:0] $end
$var wire 5 p addr2 [4:0] $end
$var wire 5 q addr3 [4:0] $end
$var wire 1 ! clk $end
$var wire 32 r wdata [31:0] $end
$var wire 1 / write_enable $end
$var reg 32 s data1 [31:0] $end
$var reg 32 t data2 [31:0] $end
$upscope $end
$upscope $end
$upscope $end
$upscope $end
$upscope $end
$enddefinitions $end
$comment Show the parameter values. $end
$dumpall
$end
#0
$dumpvars
b0 t
b0 s
b0 r
b0 q
b0 p
b0 o
b0 n
b0 m
b0 l
b0 k
b0 j
b0 i
b0 h
b111 g
b0 f
b0 e
b0 d
b0 c
1b
b1001 a
b101000 `
b100100 _
b100100 ^
b100 ]
b0 \
b0 [
b0 Z
b0 Y
b0 X
b0 W
b0 V
b0 U
b0 T
b1001 S
0R
b11100000000000000000000001001 Q
1P
b111 O
b0 N
b111 M
b111 L
0K
0J
0I
0H
0G
0F
0E
0D
1C
0B
0A
0@
0?
0>
0=
0<
0;
b111 :
b11100000000000000000000001001 9
08
b111 7
06
b0 5
b0 4
b0 3
12
01
00
0/
b11100000000000000000000001001 .
b1001 -
b11100000000000000000000001001 ,
b0 +
b0 *
b0 )
b1001 (
b0 '
b1001 &
b0 %
0$
b0 #
b11100000000000000000000001001 "
0!
$end
#5
b0 Y
b0 r
b1001 &
b1001 (
b1001 -
b1001 S
b0 '
b0 *
b0 5
b0 N
b0 c
b0 h
18
b0 j
1P
1b
1/
b1 V
b1 q
b0 n
b0 m
b0 k
b0 i
b0 l
b0 W
b0 f
b1 7
b1 L
b1 O
b1 g
b101000 ^
bx %
bx )
bx 4
bx U
bx Z
bx t
b1 M
1J
02
0C
b1 :
b1000000000000000000 _
b1 X
b1 p
b0 a
b100000000010000000000000000 "
b100000000010000000000000000 ,
b100000000010000000000000000 .
b100000000010000000000000000 9
b100000000010000000000000000 Q
b1001 +
b101000 `
b101000 ]
b100100 #
b100100 3
b100100 d
1!
#10
0!
#15
b1000 &
b1000 (
b1000 -
b1000 S
b1 '
b1 *
b1 5
b1 N
b1 c
b1 h
b111 V
b111 q
b1 j
0P
0b
b101 7
b101 L
b101 O
b101 g
b1000 Y
b1000 r
b1 n
b1 m
b1 i
b1 l
b1 W
b1 f
b101 M
0J
11
1B
b101 :
b111000000000000000100 _
b111 X
b111 p
b1 a
b101100 ^
b10100000001110000000000000001 "
b10100000001110000000000000001 ,
b10100000001110000000000000001 .
b10100000001110000000000000001 9
b10100000001110000000000000001 Q
b1010 +
bx %
bx )
bx 4
bx U
bx Z
bx t
b110000 `
b101100 ]
b101000 #
b101000 3
b101000 d
1!
#20
0!
#25
b1001 Y
b1001 r
b1001 &
b1001 (
b1001 -
b1001 S
b0 '
b0 *
b0 5
b0 N
b0 c
b0 h
b1110 V
b1110 q
b0 j
1P
1b
b0 n
b0 m
b0 i
b0 l
b0 W
b0 f
b1110000000000000000000 _
b1110 X
b1110 p
b0 a
b110000 ^
b10100000011100000000000000000 "
b10100000011100000000000000000 ,
b10100000011100000000000000000 .
b10100000011100000000000000000 9
b10100000011100000000000000000 Q
bx %
bx )
bx 4
bx U
bx Z
bx t
b1011 +
b110000 `
b110000 ]
b101100 #
b101100 3
b101100 d
1!
#30
0!
#35
b1001 &
b1001 (
b1001 -
b1001 S
b0 '
b0 *
b0 5
b0 N
b0 c
b0 h
b0 j
1P
1b
b0 n
b0 m
b0 k
b0 i
b0 l
b0 W
b0 f
18
b1101 V
b1101 q
b1 7
b1 L
b1 O
b1 g
1/
b0 Y
b0 r
b1 M
1J
01
0B
b1 :
b1101000000000000000000 _
b1101 X
b1101 p
b110100 ^
b100000011010000000000000000 "
b100000011010000000000000000 ,
b100000011010000000000000000 .
b100000011010000000000000000 9
b100000011010000000000000000 Q
b1100 +
bx %
bx )
bx 4
bx U
bx Z
bx t
b110100 `
b110100 ]
b110000 #
b110000 3
b110000 d
1!
#40
0!
#45
b10 V
b10 q
b10000000000000000000 _
b10 X
b10 p
b111000 ^
b100000000100000000000000000 "
b100000000100000000000000000 ,
b100000000100000000000000000 .
b100000000100000000000000000 9
b100000000100000000000000000 Q
bx %
bx )
bx 4
bx U
bx Z
bx t
b1101 +
b111000 `
b111000 ]
b110100 #
b110100 3
b110100 d
1!
#50
0!
#55
b10 Y
b10 r
b10 '
b10 *
b10 5
b10 N
b10 c
b10 h
b1000 V
b1000 q
b1 j
0P
0b
b10 n
b10 m
b10 i
b10 l
b10 W
b10 f
b1000000000000000001000 _
b1000 X
b1000 p
b10 a
b111100 ^
b100000010000000000000000010 "
b100000010000000000000000010 ,
b100000010000000000000000010 .
b100000010000000000000000010 9
b100000010000000000000000010 Q
b1110 +
bx %
bx )
bx 4
bx U
bx Z
bx t
b1000100 `
b111100 ]
b111000 #
b111000 3
b111000 d
1!
#60
0!
#65
b0 Y
b0 r
b0 '
b0 *
b0 5
b0 N
b0 c
b0 h
b10001 V
b10001 q
b0 j
1P
1b
b0 n
b0 m
b0 i
b0 l
b0 W
b0 f
b1010001000000000000000000 _
b10001 X
b10 o
b10001 p
b0 a
b1000000 ^
b100010100010000000000000000 "
b100010100010000000000000000 ,
b100010100010000000000000000 .
b100010100010000000000000000 9
b100010100010000000000000000 Q
bx %
bx )
bx 4
bx U
bx Z
bx t
b1111 +
b1000000 `
b1000000 ]
b111100 #
b111100 3
b111100 d
1!
#70
0!
#75
b1 j
b10 Y
b10 r
08
b1001 &
b1001 (
b1001 -
b1001 S
b10 '
b10 *
b10 5
b10 N
b10 c
b10 h
1/
b10001 V
b10001 q
0P
0b
b0 7
b0 L
b0 O
b0 g
10
b10 n
b10 m
b10 i
b10 l
b10 W
b10 f
b0 M
1K
0J
b0 :
b1000101000100010000000000000 _
b1000 X
b10001 \
b10001 o
b1000 p
b11111111111111111000100000000000 a
b1000100 ^
b10001010001000100000000000 "
b10001010001000100000000000 ,
b10001010001000100000000000 .
b10001010001000100000000000 9
b10001010001000100000000000 Q
b10000 +
b10 %
b10 )
b10 4
b10 U
b10 Z
b10 t
b11111111111111100010000001000100 `
b1000100 ]
b1000000 #
b1000000 3
b1000000 d
1!
#80
0!
#85
18
b1010 V
b1010 q
b0 W
b0 f
b101 7
b101 L
b101 O
b101 g
00
bx %
bx )
bx 4
bx U
bx Z
bx t
b1001 Y
b1001 r
b101 M
0K
11
1B
b101 :
b1000101010000000000000000000 _
b1010 X
b0 \
b1010 p
b0 a
b1001 &
b1001 (
b1001 -
b1001 S
b10 '
b10 *
b10 5
b10 N
b10 c
b10 h
b0 j
0P
0b
b1001000 ^
b10110001010100000000000000000 "
b10110001010100000000000000000 ,
b10110001010100000000000000000 .
b10110001010100000000000000000 9
b10110001010100000000000000000 Q
b10 n
b10 m
b10 k
b10 i
b10 l
b10 T
b10 e
b10 [
b10 s
b10001 +
b1001000 `
b1001000 ]
b1000100 #
b1000100 3
b1000100 d
1!
#90
0!
#95
b11111111111111111111111111001000 Y
b11111111111111111111111111001000 r
b11111111111111111111111111001000 &
b11111111111111111111111111001000 (
b11111111111111111111111111001000 -
b11111111111111111111111111001000 S
b11 '
b11 *
b11 5
b11 N
b11 c
b11 h
b1011 V
b1011 q
b11 n
b11 m
b100 k
b11 i
b11 l
b1 W
b1 f
b1000101011000000000000000100 _
b1011 X
b1011 p
b1 a
b1001100 ^
b10110001010110000000000000001 "
b10110001010110000000000000001 ,
b10110001010110000000000000001 .
b10110001010110000000000000001 9
b10110001010110000000000000001 Q
b10010 +
bx %
bx )
bx 4
bx U
bx Z
bx t
b1010000 `
b1001100 ]
b1001000 #
b1001000 3
b1001000 d
1!
#100
0!
#105
b1001 &
b1001 (
b1001 -
b1001 S
b0 '
b0 *
b0 5
b0 N
b0 c
b0 h
b1100 V
b1100 q
08
b0 j
b11 7
b11 L
b11 O
b11 g
10
1/
b0 Y
b0 r
b1001 T
b1001 e
b1001 [
b1001 s
b11111111111111111111111111010001 n
b11111111111111111111111111010001 m
b0 k
b11111111111111111111111111010001 i
b11111111111111111111111111010001 l
b11111111111111111111111111001000 W
b11111111111111111111111111001000 f
b11 M
1>
01
0B
b11 :
b101001011011000000000000000 _
b1100 \
b1010 o
b110000000000000 a
b1010000 ^
b1101010010110110000000000000 "
b1101010010110110000000000000 ,
b1101010010110110000000000000 .
b1101010010110110000000000000 9
b1101010010110110000000000000 Q
b11111111111111111111111111001000 %
b11111111111111111111111111001000 )
b11111111111111111111111111001000 4
b11111111111111111111111111001000 U
b11111111111111111111111111001000 Z
b11111111111111111111111111001000 t
b10011 +
b11000000001010000 `
b1010000 ]
b1001100 #
b1001100 3
b1001100 d
1!
#110
0!
#115
1R
0/
1P
1b
b1100 V
b1100 q
b0 W
b0 f
b110 7
b110 L
b110 O
b110 g
00
b0 n
b0 m
b0 i
b0 l
b0 T
b0 e
b0 [
b0 s
b0 %
b0 )
b0 4
b0 U
b0 Z
b0 t
b110 M
0>
16
1E
b110 :
b1100000000000000000100 _
b1100 X
b0 \
b0 o
b1100 p
b1 a
b1011000 ^
b11000000011000000000000000001 "
b11000000011000000000000000001 ,
b11000000011000000000000000001 .
b11000000011000000000000000001 9
b11000000011000000000000000001 Q
b10100 +
b1011000 `
b1010100 ]
b1010000 #
b1010000 3
b1010000 d
1!
#120
0!
#125
b10 Y
b10 r
b10 '
b10 *
b10 5
b10 N
b10 c
b10 h
b1011 V
b1011 q
0P
0b
b100 7
b100 L
b100 O
b100 g
18
0R
b10 n
b10 m
b10 k
b10 i
b10 l
b10 T
b10 e
b10 [
b10 s
b11111111111111111111111111001000 %
b11111111111111111111111111001000 )
b11111111111111111111111111001000 4
b11111111111111111111111111001000 U
b11111111111111111111111111001000 Z
b11111111111111111111111111001000 t
b100 M
1$
1;
06
0E
b100 :
b1000101011000000000000000000 _
b1011 X
b10001 o
b1011 p
b0 a
b1011100 ^
b10010001010110000000000000000 "
b10010001010110000000000000000 ,
b10010001010110000000000000000 .
b10010001010110000000000000000 9
b10010001010110000000000000000 Q
b10110 +
b1011100 `
b1011100 ]
b1011000 #
b1011000 3
b1011000 d
1!
#130
0!
#135
b11 Y
b11 r
b11 '
b11 *
b11 5
b11 N
b11 c
b11 h
b1010 V
b1010 q
b1001 %
b1001 )
b1001 4
b1001 U
b1001 Z
b1001 t
b11 n
b11 m
b100 k
b11 i
b11 l
b1 W
b1 f
b1000101010000000000000000100 _
b1010 X
b1010 p
b1 a
b1100000 ^
b10010001010100000000000000001 "
b10010001010100000000000000001 ,
b10010001010100000000000000001 .
b10010001010100000000000000001 9
b10010001010100000000000000001 Q
b10111 +
b1100100 `
b1100000 ]
b1011100 #
b1011100 3
b1011100 d
b11111111111111111111111111001000 &
b11111111111111111111111111001000 (
b11111111111111111111111111001000 -
b11111111111111111111111111001000 S
1!
#140
0!
#145
b1 Y
b1 r
b1 '
b1 *
b1 5
b1 N
b1 c
b1 h
0P
0b
1/
b1 W
b1 f
b10 V
b10 q
b1 j
b1 7
b1 L
b1 O
b1 g
18
b1 n
b1 m
b0 k
b1 i
b1 l
b0 T
b0 e
b0 [
b0 s
b0 %
b0 )
b0 4
b0 U
b0 Z
b0 t
b1 M
1J
0$
0;
b1 :
b1000010000000000000000100 _
b10 X
b10 o
b10 p
b1100100 ^
b100010000100000000000000001 "
b100010000100000000000000001 ,
b100010000100000000000000001 .
b100010000100000000000000001 9
b100010000100000000000000001 Q
b11000 +
b1000 &
b1000 (
b1000 -
b1000 S
b1101000 `
b1100100 ]
b1100000 #
b1100000 3
b1100000 d
1!
#150
0!
#155
08
1/
b110 V
b110 q
b0 7
b0 L
b0 O
b0 g
10
b0 W
b0 f
b1 Y
b1 r
b0 M
1K
0J
b0 :
b1000001001100000000000000 _
b1 X
b110 \
b1 p
b11000000000000 a
b1000 &
b1000 (
b1000 -
b1000 S
b1 '
b1 *
b1 5
b1 N
b1 c
b1 h
b1101000 ^
b10000010011000000000000 "
b10000010011000000000000 ,
b10000010011000000000000 .
b10000010011000000000000 9
b10000010011000000000000 Q
b0 j
0P
0b
b11001 +
b1 n
b1 m
b1 k
b1 i
b1 l
b1 T
b1 e
b1 [
b1 s
b0 %
b0 )
b0 4
b0 U
b0 Z
b0 t
b1100000001101000 `
b1101000 ]
b1100100 #
b1100100 3
b1100100 d
1!
#160
0!
#165
0/
b0 Y
b0 r
b110 V
b110 q
b1001 &
b1001 (
b1001 -
b1001 S
b0 '
b0 *
b0 5
b0 N
b0 c
b0 h
b1 W
b1 f
b110 7
b110 L
b110 O
b110 g
00
b1001 n
b1001 m
b10000 k
b1001 i
b1001 l
b1000 T
b1000 e
b1000 [
b1000 s
b1 %
b1 )
b1 4
b1 U
b1 Z
b1 t
b110 M
0K
16
1E
b110 :
b11100110000000000000000100 _
b110 X
b0 \
b111 o
b110 p
b1 a
b1101100 ^
b11000111001100000000000000001 "
b11000111001100000000000000001 ,
b11000111001100000000000000001 .
b11000111001100000000000000001 9
b11000111001100000000000000001 Q
b11010 +
b1110000 `
b1101100 ]
b1101000 #
b1101000 3
b1101000 d
1!
#170
0!
#175
1P
1b
b0 V
b0 q
b0 W
b0 f
b111 7
b111 L
b111 O
b111 g
b0 n
b0 m
b0 k
b0 i
b0 l
b0 T
b0 e
b0 [
b0 s
b0 %
b0 )
b0 4
b0 U
b0 Z
b0 t
b111 M
06
0E
12
1C
b111 :
b111100 _
b0 X
b0 o
b0 p
b1111 a
b111100 ^
b11100000000000000000000001111 "
b11100000000000000000000001111 ,
b11100000000000000000000001111 .
b11100000000000000000000001111 9
b11100000000000000000000001111 Q
b11011 +
b10101100 `
b1110000 ]
b1101100 #
b1101100 3
b1101100 d
1!
#180
0!
#185
b1000 &
b1000 (
b1000 -
b1000 S
b1 Y
b1 r
b1 '
b1 *
b1 5
b1 N
b1 c
b1 h
18
b0 j
1/
b10001 V
b10001 q
0P
0b
b0 W
b0 f
b1 7
b1 L
b1 O
b1 g
b1000000 ^
b1 n
b1 m
b1 k
b1 i
b1 l
b1 T
b1 e
b1 [
b1 s
b10 %
b10 )
b10 4
b10 U
b10 Z
b10 t
b1 M
1J
02
0C
b1 :
b1010001000000000000000000 _
b10001 X
b10 o
b10001 p
b0 a
b100010100010000000000000000 "
b100010100010000000000000000 ,
b100010100010000000000000000 .
b100010100010000000000000000 9
b100010100010000000000000000 Q
b1111 +
b1000000 `
b1000000 ]
b111100 #
b111100 3
b111100 d
1!
#190
0!
#195
b1 j
b11 Y
b11 r
08
b1001 &
b1001 (
b1001 -
b1001 S
b11 '
b11 *
b11 5
b11 N
b11 c
b11 h
1/
b10001 V
b10001 q
b0 7
b0 L
b0 O
b0 g
10
b11 n
b11 m
b100 k
b11 i
b11 l
b10 W
b10 f
b0 M
1K
0J
b0 :
b1000101000100010000000000000 _
b1000 X
b10001 \
b10001 o
b1000 p
b11111111111111111000100000000000 a
b1000100 ^
b10001010001000100000000000 "
b10001010001000100000000000 ,
b10001010001000100000000000 .
b10001010001000100000000000 9
b10001010001000100000000000 Q
b10000 +
b10 %
b10 )
b10 4
b10 U
b10 Z
b10 t
b11111111111111100010000001000100 `
b1000100 ]
b1000000 #
b1000000 3
b1000000 d
1!
#200
0!
#205
18
b1010 V
b1010 q
b0 W
b0 f
b101 7
b101 L
b101 O
b101 g
00
b1001 %
b1001 )
b1001 4
b1001 U
b1001 Z
b1001 t
b1001 Y
b1001 r
b101 M
0K
11
1B
b101 :
b1000101010000000000000000000 _
b1010 X
b0 \
b1010 p
b0 a
b1001 &
b1001 (
b1001 -
b1001 S
b11 '
b11 *
b11 5
b11 N
b11 c
b11 h
b0 j
b1001000 ^
b10110001010100000000000000000 "
b10110001010100000000000000000 ,
b10110001010100000000000000000 .
b10110001010100000000000000000 9
b10110001010100000000000000000 Q
b11 n
b11 m
b11 k
b11 i
b11 l
b11 T
b11 e
b11 [
b11 s
b10001 +
b1001000 `
b1001000 ]
b1000100 #
b1000100 3
b1000100 d
1!
#210
0!
#215
b11111111111111111111111111110111 Y
b11111111111111111111111111110111 r
b11111111111111111111111111110111 &
b11111111111111111111111111110111 (
b11111111111111111111111111110111 -
b11111111111111111111111111110111 S
b100 '
b100 *
b100 5
b100 N
b100 c
b100 h
b1011 V
b1011 q
b11111111111111111111111111001000 %
b11111111111111111111111111001000 )
b11111111111111111111111111001000 4
b11111111111111111111111111001000 U
b11111111111111111111111111001000 Z
b11111111111111111111111111001000 t
b100 n
b100 m
b110 k
b100 i
b100 l
b1 W
b1 f
b1000101011000000000000000100 _
b1011 X
b1011 p
b1 a
b1001100 ^
b10110001010110000000000000001 "
b10110001010110000000000000001 ,
b10110001010110000000000000001 .
b10110001010110000000000000001 9
b10110001010110000000000000001 Q
b10010 +
b1010000 `
b1001100 ]
b1001000 #
b1001000 3
b1001000 d
1!
#220
0!
#225
b1001 &
b1001 (
b1001 -
b1001 S
b0 '
b0 *
b0 5
b0 N
b0 c
b0 h
b1100 V
b1100 q
08
b0 j
b11 7
b11 L
b11 O
b11 g
10
1/
b0 Y
b0 r
b1001 T
b1001 e
b1001 [
b1001 s
b0 n
b0 m
b0 k
b0 i
b0 l
b11111111111111111111111111110111 W
b11111111111111111111111111110111 f
b11 M
1>
01
0B
b11 :
b101001011011000000000000000 _
b1100 \
b1010 o
b110000000000000 a
b1010000 ^
b1101010010110110000000000000 "
b1101010010110110000000000000 ,
b1101010010110110000000000000 .
b1101010010110110000000000000 9
b1101010010110110000000000000 Q
b11111111111111111111111111110111 %
b11111111111111111111111111110111 )
b11111111111111111111111111110111 4
b11111111111111111111111111110111 U
b11111111111111111111111111110111 Z
b11111111111111111111111111110111 t
b10011 +
b11000000001010000 `
b1010000 ]
b1001100 #
b1001100 3
b1001100 d
1!
#230
0!
#235
1R
0/
1P
1b
b1100 V
b1100 q
b0 W
b0 f
b110 7
b110 L
b110 O
b110 g
00
b0 n
b0 m
b0 i
b0 l
b0 T
b0 e
b0 [
b0 s
b0 %
b0 )
b0 4
b0 U
b0 Z
b0 t
b110 M
0>
16
1E
b110 :
b1100000000000000000100 _
b1100 X
b0 \
b0 o
b1100 p
b1 a
b1011000 ^
b11000000011000000000000000001 "
b11000000011000000000000000001 ,
b11000000011000000000000000001 .
b11000000011000000000000000001 9
b11000000011000000000000000001 Q
b10100 +
b1011000 `
b1010100 ]
b1010000 #
b1010000 3
b1010000 d
1!
#240
0!
#245
b11 Y
b11 r
b11 '
b11 *
b11 5
b11 N
b11 c
b11 h
b1011 V
b1011 q
0P
0b
b100 7
b100 L
b100 O
b100 g
18
0R
b11 n
b11 m
b11 k
b11 i
b11 l
b11 T
b11 e
b11 [
b11 s
b11111111111111111111111111110111 %
b11111111111111111111111111110111 )
b11111111111111111111111111110111 4
b11111111111111111111111111110111 U
b11111111111111111111111111110111 Z
b11111111111111111111111111110111 t
b100 M
1$
1;
06
0E
b100 :
b1000101011000000000000000000 _
b1011 X
b10001 o
b1011 p
b0 a
b1011100 ^
b10010001010110000000000000000 "
b10010001010110000000000000000 ,
b10010001010110000000000000000 .
b10010001010110000000000000000 9
b10010001010110000000000000000 Q
b10110 +
b1011100 `
b1011100 ]
b1011000 #
b1011000 3
b1011000 d
1!
#250
0!
#255
b100 Y
b100 r
b100 '
b100 *
b100 5
b100 N
b100 c
b100 h
b1010 V
b1010 q
b1001 %
b1001 )
b1001 4
b1001 U
b1001 Z
b1001 t
b100 n
b100 m
b110 k
b100 i
b100 l
b1 W
b1 f
b1000101010000000000000000100 _
b1010 X
b1010 p
b1 a
b1100000 ^
b10010001010100000000000000001 "
b10010001010100000000000000001 ,
b10010001010100000000000000001 .
b10010001010100000000000000001 9
b10010001010100000000000000001 Q
b10111 +
b1100100 `
b1100000 ]
b1011100 #
b1011100 3
b1011100 d
b11111111111111111111111111110111 &
b11111111111111111111111111110111 (
b11111111111111111111111111110111 -
b11111111111111111111111111110111 S
1!
#260
0!
#265
b10 Y
b10 r
b10 '
b10 *
b10 5
b10 N
b10 c
b10 h
1/
b10 V
b10 q
1P
1b
b1 7
b1 L
b1 O
b1 g
18
b10 n
b10 m
b10 k
b10 i
b10 l
b1 T
b1 e
b1 [
b1 s
b1 %
b1 )
b1 4
b1 U
b1 Z
b1 t
b1 M
1J
0$
0;
b1 :
b1000010000000000000000100 _
b10 X
b10 o
b10 p
b1100100 ^
b100010000100000000000000001 "
b100010000100000000000000001 ,
b100010000100000000000000001 .
b100010000100000000000000001 9
b100010000100000000000000001 Q
b11000 +
b11111111111111111111111111001000 &
b11111111111111111111111111001000 (
b11111111111111111111111111001000 -
b11111111111111111111111111001000 S
b1101000 `
b1100100 ]
b1100000 #
b1100000 3
b1100000 d
1!
#270
0!
#275
08
1/
b110 V
b110 q
b0 j
b0 7
b0 L
b0 O
b0 g
10
b0 W
b0 f
b10 Y
b10 r
b0 M
1K
0J
b0 :
b1000001001100000000000000 _
b1 X
b110 \
b1 p
b11000000000000 a
b11111111111111111111111111001000 &
b11111111111111111111111111001000 (
b11111111111111111111111111001000 -
b11111111111111111111111111001000 S
b10 '
b10 *
b10 5
b10 N
b10 c
b10 h
b1101000 ^
b10000010011000000000000 "
b10000010011000000000000 ,
b10000010011000000000000 .
b10000010011000000000000 9
b10000010011000000000000 Q
0P
0b
b11001 +
b10 n
b10 m
b10 k
b10 i
b10 l
b10 T
b10 e
b10 [
b10 s
b0 %
b0 )
b0 4
b0 U
b0 Z
b0 t
b1100000001101000 `
b1101000 ]
b1100100 #
b1100100 3
b1100100 d
1!
#280
0!
#285
0/
b0 Y
b0 r
b110 V
b110 q
b1001 &
b1001 (
b1001 -
b1001 S
b0 '
b0 *
b0 5
b0 N
b0 c
b0 h
b10 W
b10 f
b110 7
b110 L
b110 O
b110 g
00
b1010 n
b1010 m
b100000 k
b1010 i
b1010 l
b1000 T
b1000 e
b1000 [
b1000 s
b10 %
b10 )
b10 4
b10 U
b10 Z
b10 t
b110 M
0K
16
1E
b110 :
b11100110000000000000000100 _
b110 X
b0 \
b111 o
b110 p
b1 a
b1101100 ^
b11000111001100000000000000001 "
b11000111001100000000000000001 ,
b11000111001100000000000000001 .
b11000111001100000000000000001 9
b11000111001100000000000000001 Q
b11010 +
b1110000 `
b1101100 ]
b1101000 #
b1101000 3
b1101000 d
1!
#290
0!
#295
1P
1b
b0 V
b0 q
b0 W
b0 f
b111 7
b111 L
b111 O
b111 g
b0 n
b0 m
b0 k
b0 i
b0 l
b0 T
b0 e
b0 [
b0 s
b0 %
b0 )
b0 4
b0 U
b0 Z
b0 t
b111 M
06
0E
12
1C
b111 :
b111100 _
b0 X
b0 o
b0 p
b1111 a
b111100 ^
b11100000000000000000000001111 "
b11100000000000000000000001111 ,
b11100000000000000000000001111 .
b11100000000000000000000001111 9
b11100000000000000000000001111 Q
b11011 +
b10101100 `
b1110000 ]
b1101100 #
b1101100 3
b1101100 d
1!
#300
0!
#305
b10 Y
b10 r
b11111111111111111111111111001000 &
b11111111111111111111111111001000 (
b11111111111111111111111111001000 -
b11111111111111111111111111001000 S
b10 '
b10 *
b10 5
b10 N
b10 c
b10 h
18
b0 j
1/
b10001 V
b10001 q
0P
0b
b0 W
b0 f
b1 7
b1 L
b1 O
b1 g
b1000000 ^
b10 n
b10 m
b10 k
b10 i
b10 l
b10 T
b10 e
b10 [
b10 s
b11 %
b11 )
b11 4
b11 U
b11 Z
b11 t
b1 M
1J
02
0C
b1 :
b1010001000000000000000000 _
b10001 X
b10 o
b10001 p
b0 a
b100010100010000000000000000 "
b100010100010000000000000000 ,
b100010100010000000000000000 .
b100010100010000000000000000 9
b100010100010000000000000000 Q
b1111 +
b1000000 `
b1000000 ]
b111100 #
b111100 3
b111100 d
1!
#310
0!
#315
1P
1b
b100 Y
b100 r
08
b1001 &
b1001 (
b1001 -
b1001 S
b100 '
b100 *
b100 5
b100 N
b100 c
b100 h
1/
b10001 V
b10001 q
b0 7
b0 L
b0 O
b0 g
10
b100 n
b100 m
b1000 k
b100 i
b100 l
b10 W
b10 f
b0 M
1K
0J
b0 :
b1000101000100010000000000000 _
b1000 X
b10001 \
b10001 o
b1000 p
b11111111111111111000100000000000 a
b1000100 ^
b10001010001000100000000000 "
b10001010001000100000000000 ,
b10001010001000100000000000 .
b10001010001000100000000000 9
b10001010001000100000000000 Q
b10000 +
b10 %
b10 )
b10 4
b10 U
b10 Z
b10 t
b11111111111111100010000001000100 `
b1000100 ]
b1000000 #
b1000000 3
b1000000 d
1!
#320
0!
#325
b0 j
18
b1010 V
b1010 q
b0 W
b0 f
b101 7
b101 L
b101 O
b101 g
00
b1001 %
b1001 )
b1001 4
b1001 U
b1001 Z
b1001 t
b1001 Y
b1001 r
b101 M
0K
11
1B
b101 :
b1000101010000000000000000000 _
b1010 X
b0 \
b1010 p
b0 a
b1001 &
b1001 (
b1001 -
b1001 S
b100 '
b100 *
b100 5
b100 N
b100 c
b100 h
0P
0b
b1001000 ^
b10110001010100000000000000000 "
b10110001010100000000000000000 ,
b10110001010100000000000000000 .
b10110001010100000000000000000 9
b10110001010100000000000000000 Q
b100 n
b100 m
b100 k
b100 i
b100 l
b100 T
b100 e
b100 [
b100 s
b10001 +
b1001000 `
b1001000 ]
b1000100 #
b1000100 3
b1000100 d
1!
#330
0!
